%YAML 1.1
%TAG !u! tag:unity3d.com,2011:
--- !u!78 &1
TagManager:
  serializedVersion: 2
  tags:
  - Hat
  - Bomb
  - DeadZone
  - Catcher
  layers:
  - Default
  - TransparentFX
  - Ignore Raycast
  - 
  - Water
  - UI
  - 
  - 
  - 
  - 
  - 
  - 
  - 
  - 
  - 
  - 
  - 
  - 
  - 
  - 
  - 
  - 
  - 
  - 
  - 
  - 
  - 
  - 
  - 
  - 
  - 
  - 
  m_SortingLayers:
  - name: Default
    uniqueID: 0
    locked: 0
  - name: Background
    uniqueID: 1959699241
    locked: 0
  - name: Foreground
    uniqueID: 404910065
    locked: 0
  - name: Sparks
    uniqueID: 1369744519
    locked: 0
  - name: UI
    uniqueID: 4287967513
    locked: 0
